…
png("monocle3_markerGenes.png", width = 1400)
plot_cells(cds, genes = c("top2a","aldh1a2","fn1a"), label_cell_groups=FALSE,label_leaves=FALSE,label_branch_points=FALSE,graph_label_size=5, cell_size = 1)
dev.off()
```

### DE analysis

Which genes have cluster-dependent expression?

```{r DE_following_clusters, eval=FALSE}
gene_fits <- fit_models(cds, model_formula_str = "~clusters.03")
fit_coefs = coefficient_table(gene_fits)
## coefficient_table() calculates tests each coefficient for whether it is significantly different than zero under the Wald test. By default, coefficient_table() adjusts these p-values for multiple hypothesis testing using the method of Benjamini and Hochberg. 
subset(fit_coefs, q_value <= 0.05 & term != "(Intercept)")
# A tibble: 7,568 x 12
#   id    symbol gene_short_name status term  estimate std_err test_val  p_value
#   <chr> <chr>  <chr>           <chr>  <chr>    <dbl>   <dbl>    <dbl>    <dbl>
# 1 ENSD… rpl18a rpl18a          OK     clus…    0.198  0.0216     9.17 8.10e-20
# 2 ENSD… rpl18a rpl18a          OK     clus…   -0.196  0.0188   -10.4  4.51e-25
# 3 ENSD… rpl18a rpl18a          OK     clus…    0.445  0.0317    14.0  1.35e-43
# 4 ENSD… rpl18a rpl18a          OK     clus…    0.233  0.0406     5.73 1.09e- 8
# 5 ENSD… nap1l1 nap1l1          OK     clus…    0.502  0.0769     6.53 7.30e-11
# 6 ENSD… nap1l1 nap1l1          OK     clus…    0.428  0.0720     5.94 3.08e- 9
# 7 ENSD… nap1l1 nap1l1          OK     clus…    0.930  0.0671    13.9  1.50e-42
# 8 ENSD… creb3… creb3l2         OK     clus…   -0.464  0.0773    -6.00 2.13e- 9
# 9 ENSD… creb3… creb3l2         OK     clus…   -0.947  0.0814   -11.6  1.06e-30
#10 ENSD… creb3… creb3l2         OK     clus…   -0.427  0.0714    -5.98 2.48e- 9
# … with 7,558 more rows, and 3 more variables: normalized_effect <dbl>,
#   model_component <chr>, q_value <dbl>
```
…
